<?xml version="1.0" encoding="UTF-8" standalone="no"?>
<!DOCTYPE svg PUBLIC "-//W3C//DTD SVG 20010904//EN" "http://www.w3.org/TR/2001/REC-SVG-20010904/DTD/svg10.dtd">
<svg version="1.0" xmlns="http://www.w3.org/2000/svg" width="200.000000pt" height="200.000000pt" viewBox="0 0 200.000000 200.000000" preserveAspectRatio="xMidYMid meet">

<g transform="translate(0.000000,200.000000) scale(0.100000,-0.100000)" fill="#000000" stroke="none">
<path d="M872 1990 c-406 -57 -738 -352 -837 -744 -89 -354 14 -709 278 -963 332 -318 825 -369 1216 -126 216 135 380 363 443 620 32 131 30 332 -5 464 -95 363 -366 634 -724 725 -107 27 -273 38 -371 24z m738 -637 l55 -19 3 -86 3 -86 -53 21 c-77 30 -208 30 -265 0 -59 -32 -95 -83 -101 -143 -6 -65 2 -93 41 -136 39 -45 98 -73 154 -74 l42 0 3 86 3 85 88 2 87 2 0 -151 0 -151 -52 -18 c-30 -10 -96 -20 -150 -23 -80 -3 -109 -1 -165 17 -161 50 -253 174 -253 342 0 163 106 298 270 344 73 20 216 14 290 -12z m-797 -5 c49 -15 112 -70 138 -120 11 -22 19 -41 17 -43 -2 -1 -54 -7 -116 -13 l-114 -10 -26 29 c-47 52 -152 47 -160 -8 -5 -33 31 -50 143 -68 124 -19 187 -39 226 -72 105 -89 86 -255 -38 -329 -61 -36 -138 -54 -238 -54 -176 0 -277 45 -329 147 -29 57 -27 59 106 72 79 7 124 8 126 2 18 -54 92 -88 154 -71 43 12 61 31 56 62 -4 31 -31 42 -175 72 -68 14 -136 32 -152 40 -69 36 -120 132 -106 199 23 105 96 160 240 181 47 7 206 -4 248 -16z"/>
</g>
</svg>